"RowId"	"File"	"Object"	"Area"	"Perimeter"	"Roundness"	"Solidity"	"Eccentricity"	"Ly"	"Lx"	"Alpha"	"Sk width"	"Sk width std"	"Skeleton length"	"Branch points"	"End points"	"Maximum length"	"Length estimate"	"Distance(1)"	"X"	"Y"
nuclei.png_1	nuclei.png	1	864	112.912	0.922833	0.957871	0.431081	15.776	17.484	0.901441	19.8004	6.68897	21	1	3	35	38.973	135.035	112.921	30.3438
nuclei.png_2	nuclei.png	2	908	113.497	0.941156	0.972163	0.533633	15.6709	18.5298	0.0276377	27.9674	1.21012	7	0	2	37.108	38.4517	49.601	177.305	163.022
nuclei.png_3	nuclei.png	3	505	86.5269	0.92066	0.956439	0.55713	11.5987	13.9672	-0.424876	17.6565	2.5832	11	1	3	28.6007	29.9312	37.6435	215.087	130.885
nuclei.png_4	nuclei.png	4	523	89.598	0.90481	0.942342	0.21104	12.8297	13.1253	-0.541659	17.644	3.57576	8	0	2	27.1662	31.4861	37.6435	229.625	165.608
nuclei.png_5	nuclei.png	5	685	100.184	0.926089	0.959384	0.466365	13.9336	15.7515	0.0438521	24.3052	1.22775	6	0	2	31.5753	34.4663	62.508	246.832	47.7328
nuclei.png_6	nuclei.png	6	1022	123.64	0.916585	0.953358	0.591742	16.262	20.173	0.621734	22.5391	4.09737	21	0	2	41.2311	42.9441	46.0389	263.27	197.034
nuclei.png_7	nuclei.png	7	625	100.184	0.884601	0.93985	0.49247	13.2331	15.2047	0.369583	12.9835	8.25605	22	0	2	32.6497	35.9052	41.8105	262.91	140.306
nuclei.png_8	nuclei.png	8	852	113.255	0.913625	0.95302	0.489135	15.43	17.6907	0.505536	20.8056	5.30424	16	0	2	36.6879	39.4535	62.508	302.786	75.5962
nuclei.png_9	nuclei.png	9	966	121.74	0.905023	0.967936	0.538277	16.1618	19.177	0.42246	17.1293	10.0157	28	0	2	40.3113	42.7723	53.5121	315.612	185.904
