"File"	"Object"	"X"	"Y"
1_70.png	1	71	56
1_70.png	2	71	117
1_70.png	3	71	178
1_70.png	4	71	239
1_70.png	5	71	300
1_70.png	6	71	361
1_70.png	7	71	422
1_70.png	8	71	483
1_70.png	9	71	545
1_70.png	10	154	56
1_70.png	11	154	117
1_70.png	12	154	178
1_70.png	13	154	239
1_70.png	14	154	300
1_70.png	15	154	361
1_70.png	16	154	422
1_70.png	17	154	483
1_70.png	18	154	545
1_70.png	19	238	56
1_70.png	20	238	117
1_70.png	21	238	178
1_70.png	22	238	239
1_70.png	23	238	300
1_70.png	24	238	361
1_70.png	25	238	422
1_70.png	26	238	483
1_70.png	27	238	545
1_70.png	28	321	56
1_70.png	29	321	117
1_70.png	30	321	178
1_70.png	31	321	239
1_70.png	32	321	300
1_70.png	33	321	361
1_70.png	34	321	422
1_70.png	35	321	483
1_70.png	36	321	545
1_70.png	37	404	56
1_70.png	38	404	117
1_70.png	39	404	178
1_70.png	40	404	239
1_70.png	41	404	300
1_70.png	42	404	361
1_70.png	43	404	422
1_70.png	44	404	483
1_70.png	45	404	545
1_70.png	46	488	56
1_70.png	47	488	117
1_70.png	48	488	178
1_70.png	49	488	239
1_70.png	50	488	300
1_70.png	51	488	361
1_70.png	52	488	422
1_70.png	53	488	483
1_70.png	54	488	545
1_70.png	55	571	56
1_70.png	56	571	117
1_70.png	57	571	178
1_70.png	58	571	239
1_70.png	59	571	300
1_70.png	60	571	361
1_70.png	61	571	422
1_70.png	62	571	483
1_70.png	63	571	545
1_70.png	64	654	56
1_70.png	65	654	117
1_70.png	66	654	178
1_70.png	67	654	239
1_70.png	68	654	300
1_70.png	69	654	361
1_70.png	70	654	422
2_70.png	1	71	56
2_70.png	2	71	117
2_70.png	3	71	178
2_70.png	4	71	239
2_70.png	5	71	300
2_70.png	6	71	361
2_70.png	7	71	422
2_70.png	8	71	483
2_70.png	9	71	545
2_70.png	10	154	56
2_70.png	11	154	117
2_70.png	12	154	178
2_70.png	13	154	239
2_70.png	14	154	300
2_70.png	15	154	361
2_70.png	16	154	422
2_70.png	17	154	483
2_70.png	18	154	545
2_70.png	19	238	56
2_70.png	20	238	117
2_70.png	21	238	178
2_70.png	22	238	239
2_70.png	23	238	300
2_70.png	24	238	361
2_70.png	25	238	422
2_70.png	26	238	483
2_70.png	27	238	545
2_70.png	28	321	56
2_70.png	29	321	117
2_70.png	30	321	178
2_70.png	31	321	239
2_70.png	32	321	300
2_70.png	33	321	361
2_70.png	34	321	422
2_70.png	35	321	483
2_70.png	36	321	545
2_70.png	37	404	56
2_70.png	38	404	117
2_70.png	39	404	178
2_70.png	40	404	239
2_70.png	41	404	300
2_70.png	42	404	361
2_70.png	43	404	422
2_70.png	44	404	483
2_70.png	45	404	545
2_70.png	46	488	56
2_70.png	47	488	117
2_70.png	48	488	178
2_70.png	49	488	239
2_70.png	50	488	300
2_70.png	51	488	361
2_70.png	52	488	422
2_70.png	53	488	483
2_70.png	54	488	545
2_70.png	55	571	56
2_70.png	56	571	117
2_70.png	57	571	178
2_70.png	58	571	239
2_70.png	59	571	300
2_70.png	60	571	361
2_70.png	61	571	422
2_70.png	62	571	483
2_70.png	63	571	545
2_70.png	64	654	56
2_70.png	65	654	117
2_70.png	66	654	178
2_70.png	67	654	239
2_70.png	68	654	300
2_70.png	69	654	361
2_70.png	70	654	422
