"RowId"	"File"	"Object"	"Pearsons"	"Manders 1"	"Manders 2"	"Overlap"	"MutualInformation"
cells.tif_S1_C1_test.png_1	cells.tif_S1_C1_test.png	1	0.353572	2.55239	0.389885	0.997565	0.141345
cells.tif_S1_C1_test.png_2	cells.tif_S1_C1_test.png	2	-0.299394	0.461865	2.0783	0.979741	1.14811
cells.tif_S1_C1_test.png_3	cells.tif_S1_C1_test.png	3	-0.217342	0.340773	2.72862	0.964283	0.773987
cells.tif_S1_C1_test.png_4	cells.tif_S1_C1_test.png	4	-0.131009	0.403002	2.2996	0.962676	0.802828
cells.tif_S1_C1_test.png_5	cells.tif_S1_C1_test.png	5	-0.621677	0.326169	2.87793	0.968861	0.643293
cells.tif_S1_C1_test.png_6	cells.tif_S1_C1_test.png	6	-0.352253	0.493515	1.90659	0.970016	0.363445
cells.tif_S1_C1_test.png_7	cells.tif_S1_C1_test.png	7	-0.0850163	0.80474	1.19774	0.981769	0.152151
cells.tif_S1_C1_test.png_8	cells.tif_S1_C1_test.png	8	0.189255	2.58471	0.383791	0.995987	0.153901
cells.tif_S1_C1_test.png_9	cells.tif_S1_C1_test.png	9	0.127948	0.723637	1.32813	0.98035	0.341038
cells.tif_S1_C1_test.png_10	cells.tif_S1_C1_test.png	10	0.650196	1.44035	0.64739	0.965643	0.596352
cells.tif_S1_C1_test.png_11	cells.tif_S1_C1_test.png	11	0.216237	2.2695	0.375184	0.922758	1.82484
cells.tif_S1_C1_test.png_12	cells.tif_S1_C1_test.png	12	-0.534101	0.459773	2.09101	0.980504	0.745326
cells.tif_S1_C1_test.png_13	cells.tif_S1_C1_test.png	13	-0.360069	0.458683	1.98517	0.954235	0.779462
cells.tif_S1_C1_test.png_14	cells.tif_S1_C1_test.png	14	0.213555	1.34581	0.730346	0.991418	0.143367
cells.tif_S1_C1_test.png_15	cells.tif_S1_C1_test.png	15	-0.0211753	0.547884	1.72201	0.971319	0.174048
cells.tif_S1_C1_test.png_16	cells.tif_S1_C1_test.png	16	-0.153265	0.63715	1.45727	0.963587	0.845149
cells.tif_S1_C1_test.png_17	cells.tif_S1_C1_test.png	17	0.995539	1.18611	0.822736	0.987853	3.44845
cells.tif_S1_C1_test.png_18	cells.tif_S1_C1_test.png	18	0.888942	2.42688	0.41084	0.998529	0.558392
cells.tif_S1_C1_test.png_19	cells.tif_S1_C1_test.png	19	0.999287	1.31861	0.73567	0.984918	2.89599
cells.tif_S1_C1_test.png_20	cells.tif_S1_C1_test.png	20	0.99648	1.4903	0.66156	0.992935	2.67825
cells.tif_S1_C1_test.png_21	cells.tif_S1_C1_test.png	21	0.991325	1.8351	0.541177	0.996552	2.32139
cells.tif_S1_C1_test.png_22	cells.tif_S1_C1_test.png	22	0.999725	1.25349	0.777356	0.987121	3.21883
cells.tif_S1_C1_test.png_23	cells.tif_S1_C1_test.png	23	0.641194	0.831295	1.126	0.967492	1.36101
cells.tif_S1_C1_test.png_24	cells.tif_S1_C1_test.png	24	-0.260483	3.7254	0.222849	0.911154	0.733178
cells.tif_S1_C1_test.png_25	cells.tif_S1_C1_test.png	25	0.911452	2.59791	0.383292	0.997877	1.26654
cells.tif_S1_C1_test.png_26	cells.tif_S1_C1_test.png	26	0.306517	1.84252	0.535626	0.993429	0.18233
cells.tif_S1_C1_test.png_27	cells.tif_S1_C1_test.png	27	0.997562	1.50034	0.6569	0.992762	3.38404
cells.tif_S1_C1_test.png_28	cells.tif_S1_C1_test.png	28	0.997839	1.43085	0.688804	0.992761	2.98606
cells.tif_S1_C1_test.png_29	cells.tif_S1_C1_test.png	29	0.457112	1.89361	0.520847	0.993118	0.271452
