"RowId"	"File"	"Object"	"X"	"Y"	"Rad"	"Alpha"	"Lx"	"Ly"	"Eccentricity"
1_43.png_1	1_43.png	1	37	164	10	-1.88964	17.0957	2.90434	0.169888
1_43.png_2	1_43.png	2	50	351	10	-0.621666	17.1534	2.84659	0.165949
1_43.png_3	1_43.png	3	52	458	10	-0.0432109	17.2792	2.72075	0.157458
1_43.png_4	1_43.png	4	62	197	10	-0.00266368	17.0482	2.95178	0.173143
1_43.png_5	1_43.png	5	72	354	10	0.21884	17.9224	2.07756	0.11592
1_43.png_6	1_43.png	6	76	155	10	-0.627651	17.9158	2.08421	0.116334
1_43.png_7	1_43.png	7	76	311	10	0.0443037	11.9815	8.01854	0.669246
1_43.png_8	1_43.png	8	78	540	10	-1.20893	17.4489	2.5511	0.146204
1_43.png_9	1_43.png	9	85	183	10	-1.97621	16.8147	3.18534	0.189438
1_43.png_10	1_43.png	10	89	554	10	-0.528652	17.2352	2.76483	0.160418
1_43.png_11	1_43.png	11	90	345	10	-2.30873	17.6424	2.35759	0.133632
1_43.png_12	1_43.png	12	91	510	10	0.417381	17.6075	2.3925	0.135879
1_43.png_13	1_43.png	13	92	277	10	0.434474	17.0702	2.92984	0.171635
1_43.png_14	1_43.png	14	96	326	10	-2.15824	12.0817	7.91833	0.655401
1_43.png_15	1_43.png	15	107	392	10	-1.74585	18.7612	1.23885	0.0660325
1_43.png_16	1_43.png	16	113	277	10	-0.427484	17.1554	2.84459	0.165813
1_43.png_17	1_43.png	17	118	549	10	-1.99035	14.946	5.05404	0.338154
1_43.png_18	1_43.png	18	119	517	10	-0.930584	17.4755	2.52446	0.144457
1_43.png_19	1_43.png	19	121	441	10	-1.79229	18.3261	1.67393	0.0913412
1_43.png_20	1_43.png	20	122	572	10	-0.791575	17.0775	2.92246	0.171129
1_43.png_21	1_43.png	21	125	428	10	-2.05267	14.4615	5.53855	0.382987
1_43.png_22	1_43.png	22	136	558	10	-0.894899	10.6506	9.34939	0.877827
1_43.png_23	1_43.png	23	139	369	10	-0.409581	17.0461	2.95391	0.17329
1_43.png_24	1_43.png	24	143	416	10	0.244206	12.2543	7.74568	0.632078
1_43.png_25	1_43.png	25	149	376	10	-0.898681	17.6533	2.34674	0.132935
1_43.png_26	1_43.png	26	156	271	10	0.572381	17.2918	2.70817	0.156615
1_43.png_27	1_43.png	27	159	550	10	-1.61044	15.9869	4.01311	0.251025
1_43.png_28	1_43.png	28	161	444	10	-1.50836	17.8353	2.16473	0.121374
1_43.png_29	1_43.png	29	186	302	10	-1.97002	17.919	2.08101	0.116134
1_43.png_30	1_43.png	30	187	282	10	-1.22639	17.0175	2.98245	0.175257
1_43.png_31	1_43.png	31	188	575	10	0.550565	17.4366	2.56341	0.147013
1_43.png_32	1_43.png	32	195	526	10	-0.683318	17.0529	2.94708	0.17282
1_43.png_33	1_43.png	33	209	358	10	-1.27504	17.9445	2.05549	0.114547
1_43.png_34	1_43.png	34	229	578	10	-0.631521	18.4061	1.5939	0.0865964
1_43.png_35	1_43.png	35	238	583	10	-0.34706	17.5581	2.44191	0.139076
1_43.png_36	1_43.png	36	245	330	10	-0.571368	17.7144	2.28563	0.129027
1_43.png_37	1_43.png	37	247	457	10	-1.26587	16.2924	3.70758	0.227565
1_43.png_38	1_43.png	38	251	539	10	-0.547868	18.0495	1.95051	0.108065
1_43.png_39	1_43.png	39	256	432	10	0.68845	17.4945	2.50547	0.143215
1_43.png_40	1_43.png	40	259	356	10	-1.55088	17.489	2.51105	0.143579
1_43.png_41	1_43.png	41	265	555	10	-1.18581	17.5623	2.4377	0.138803
1_43.png_42	1_43.png	42	265	577	10	-2.1507	16.5718	3.42821	0.206871
1_43.png_43	1_43.png	43	273	471	10	0.020895	17.3784	2.62162	0.150855
1_43.png_44	1_43.png	44	281	429	10	-0.354449	18.1484	1.85155	0.102023
1_43.png_45	1_43.png	45	288	57	10	-1.76595	17.0257	2.97425	0.174691
1_43.png_46	1_43.png	46	289	467	10	0.569157	17.5981	2.40192	0.136488
1_43.png_47	1_43.png	47	299	178	10	-1.13822	17.3558	2.64417	0.15235
1_43.png_48	1_43.png	48	315	83	10	0.224104	17.354	2.64601	0.152473
1_43.png_49	1_43.png	49	319	195	10	-0.36431	18.1481	1.85194	0.102046
1_43.png_50	1_43.png	50	325	333	10	-1.74268	17.2999	2.70011	0.156077
1_43.png_51	1_43.png	51	329	153	10	-0.336324	18.2431	1.75695	0.0963078
1_43.png_52	1_43.png	52	334	359	10	-0.533158	16.9633	3.03673	0.179018
1_43.png_53	1_43.png	53	337	68	10	-2.00533	17.142	2.85797	0.166723
1_43.png_54	1_43.png	54	347	100	10	-0.749323	17.8365	2.1635	0.121296
1_43.png_55	1_43.png	55	347	191	10	-2.31971	17.1457	2.85425	0.16647
1_43.png_56	1_43.png	56	348	311	10	0.202201	17.6367	2.36334	0.134002
1_43.png_57	1_43.png	57	357	359	10	0.437379	17.5693	2.43066	0.138347
1_43.png_58	1_43.png	58	363	49	10	0.0935906	17.036	2.96397	0.173982
1_43.png_59	1_43.png	59	373	343	10	-2.05351	17.707	2.29295	0.129494
1_43.png_60	1_43.png	60	373	415	10	-1.46382	17.9096	2.09036	0.116717
1_43.png_61	1_43.png	61	375	104	10	-1.45117	12.3252	7.67479	0.622691
1_43.png_62	1_43.png	62	383	436	10	-0.589641	17.2705	2.7295	0.158044
1_43.png_63	1_43.png	63	387	128	10	-0.546814	17.2266	2.77342	0.160996
1_43.png_64	1_43.png	64	391	77	10	-0.00363297	11.5142	8.48578	0.736983
1_43.png_65	1_43.png	65	407	395	10	-0.712842	18.1184	1.88158	0.103849
1_43.png_66	1_43.png	66	408	437	10	0.563239	17.2821	2.71788	0.157266
1_43.png_67	1_43.png	67	417	85	10	-0.902826	17.5533	2.44669	0.139386
1_43.png_68	1_43.png	68	417	411	10	-1.33867	17.2233	2.77675	0.161221
1_43.png_69	1_43.png	69	422	108	10	-1.72579	17.646	2.35395	0.133398
1_43.png_70	1_43.png	70	428	236	10	-1.07121	18.1526	1.84736	0.101768
1_43.png_71	1_43.png	71	455	200	10	-0.255938	16.8202	3.17977	0.189044
1_43.png_72	1_43.png	72	473	216	10	-1.11305	18.055	1.94503	0.107728
1_43.png_73	1_43.png	73	484	82	10	-2.15101	17.6308	2.3692	0.134378
1_43.png_74	1_43.png	74	489	289	10	-1.50073	10	10	1
1_43.png_75	1_43.png	75	495	496	10	-1.16503	17.0489	2.95105	0.173093
1_43.png_76	1_43.png	76	502	362	10	-2.15057	17.622	2.37797	0.134943
1_43.png_77	1_43.png	77	503	261	10	0.299959	16.7636	3.23641	0.193062
1_43.png_78	1_43.png	78	510	68	10	0.00633717	17.5235	2.47652	0.141326
1_43.png_79	1_43.png	79	513	117	10	0.360062	17.997	2.00302	0.111298
1_43.png_80	1_43.png	80	515	351	10	0.49977	18.2628	1.7372	0.0951224
1_43.png_81	1_43.png	81	520	466	10	0.0470279	18.2823	1.71767	0.0939526
1_43.png_82	1_43.png	82	523	394	10	0.0776866	17.2693	2.73073	0.158127
1_43.png_83	1_43.png	83	526	510	10	0.222151	18.7388	1.26119	0.0673036
1_43.png_84	1_43.png	84	530	288	10	-1.65481	18.2826	1.7174	0.0939362
1_43.png_85	1_43.png	85	537	467	10	-0.385401	13.5549	6.44509	0.47548
1_43.png_86	1_43.png	86	541	350	10	-0.514778	17.0067	2.99325	0.176004
1_43.png_87	1_43.png	87	543	42	10	-1.6584	17.8162	2.18383	0.122576
1_43.png_88	1_43.png	88	550	481	10	-1.31353	12.5375	7.46252	0.595217
1_43.png_89	1_43.png	89	555	240	10	-0.355273	18.45	1.55001	0.0840117
1_43.png_90	1_43.png	90	562	200	10	-0.0139458	17.9271	2.07294	0.115632
1_43.png_91	1_43.png	91	570	124	10	0.711827	17.4294	2.57059	0.147486
1_43.png_92	1_43.png	92	570	428	10	-0.273757	17.4196	2.58036	0.148129
1_43.png_93	1_43.png	93	571	158	10	-0.847192	18.2413	1.75868	0.0964118
1_43.png_94	1_43.png	94	577	325	10	-1.48268	17.7949	2.2051	0.123918
1_43.png_95	1_43.png	95	579	309	10	-1.97311	17.5836	2.41638	0.137422
1_43.png_96	1_43.png	96	581	241	10	0.107018	15.1417	4.85831	0.320857
1_43.png_97	1_43.png	97	586	27	10	-0.941835	17.6631	2.33688	0.132303
1_43.png_98	1_43.png	98	586	208	10	-0.417919	14.4653	5.53472	0.382621
1_43.png_99	1_43.png	99	589	168	10	-0.149268	16.9728	3.02718	0.178354
1_43.png_100	1_43.png	100	591	39	10	-1.35851	17.3581	2.64189	0.152199
1_43.png_101	1_43.png	101	601	123	10	-0.843084	12.8824	7.11759	0.552504
1_43.png_102	1_43.png	102	608	508	10	-1.97941	16.9519	3.04809	0.179808
1_43.png_103	1_43.png	103	614	136	10	-0.748887	13.5694	6.43059	0.473904
1_43.png_104	1_43.png	104	614	295	10	-0.456146	17.8599	2.14009	0.119827
1_43.png_105	1_43.png	105	614	347	10	0.522903	18.1412	1.85878	0.102462
1_43.png_106	1_43.png	106	619	540	10	-0.508909	17.3372	2.66284	0.153591
1_43.png_107	1_43.png	107	622	253	10	0.487847	17.3209	2.67911	0.154675
1_43.png_108	1_43.png	108	629	322	10	-1.62573	17.154	2.84598	0.165907
1_43.png_109	1_43.png	109	630	92	10	-0.129921	17.4446	2.55535	0.146484
1_43.png_110	1_43.png	110	630	209	10	-0.886324	17.2389	2.76114	0.16017
1_43.png_111	1_43.png	111	643	136	10	0.503759	17.3862	2.61381	0.150338
1_43.png_112	1_43.png	112	648	470	10	-2.16126	18.0835	1.91647	0.105979
1_43.png_113	1_43.png	113	649	535	10	-2.24251	17.8002	2.19978	0.123581
1_43.png_114	1_43.png	114	651	502	10	-0.822634	17.6155	2.3845	0.135363
1_43.png_115	1_43.png	115	667	208	10	-2.34695	18.2661	1.73387	0.0949227
1_43.png_116	1_43.png	116	676	194	10	-1.89353	17.6688	2.33116	0.131936
1_43.png_117	1_43.png	117	688	403	10	-1.85368	16.8245	3.17551	0.188743
1_43.png_118	1_43.png	118	692	483	10	-1.61582	17.38	2.62	0.150748
1_43.png_119	1_43.png	119	694	122	10	-1.74683	17.2543	2.7457	0.159132
1_43.png_120	1_43.png	120	702	387	10	0.465581	18.0332	1.96679	0.109065
1_43.png_121	1_43.png	121	705	171	10	-1.38441	16.4693	3.53068	0.214379
1_43.png_122	1_43.png	122	710	150	10	0.017352	10.6618	9.33821	0.875858
1_43.png_123	1_43.png	123	714	430	10	0.232041	17.3833	2.61668	0.150528
1_43.png_124	1_43.png	124	718	99	10	0.149564	17.5571	2.4429	0.13914
1_43.png_125	1_43.png	125	718	310	10	-1.70727	17.0771	2.92286	0.171157
1_43.png_126	1_43.png	126	720	171	10	-0.948222	12.6936	7.30643	0.575601
1_43.png_127	1_43.png	127	721	299	10	-2.07767	18.1605	1.83946	0.101289
1_43.png_128	1_43.png	128	733	338	10	-0.363228	13.399	6.60095	0.492643
1_43.png_129	1_43.png	129	734	381	10	-0.586142	17.4576	2.54238	0.145631
1_43.png_130	1_43.png	130	737	260	10	-0.400883	17.2856	2.7144	0.157033
1_43.png_131	1_43.png	131	739	136	10	-2.22245	11.8789	8.1211	0.683658
1_43.png_132	1_43.png	132	739	412	10	-2.03681	17.6842	2.31577	0.130951
1_43.png_133	1_43.png	133	745	213	10	-0.168142	16.8805	3.11953	0.184801
1_43.png_134	1_43.png	134	747	177	10	-0.0344302	13.8156	6.18439	0.447638
1_43.png_135	1_43.png	135	757	146	10	-0.199675	16.4826	3.51745	0.213404
1_43.png_136	1_43.png	136	757	335	10	0.594872	13.2919	6.70812	0.504678
1_43.png_137	1_43.png	137	765	236	10	-1.39088	18.2087	1.79134	0.0983784
1_43.png_138	1_43.png	138	771	147	10	-0.108817	10	10	1
1_43.png_139	1_43.png	139	771	307	10	-1.53843	17.6341	2.3659	0.134166
1_43.png_140	1_43.png	140	32	503	20	-0.726993	36.6227	3.37731	0.0922191
1_43.png_141	1_43.png	141	53	480	20	-0.470938	23.6304	16.3696	0.692733
1_43.png_142	1_43.png	142	61	173	20	-0.370127	21.9287	18.0713	0.824091
1_43.png_143	1_43.png	143	66	302	20	0.313749	26.0251	13.9749	0.536978
1_43.png_144	1_43.png	144	67	333	20	0.164732	26.3411	13.6589	0.51854
1_43.png_145	1_43.png	145	78	507	20	0.669985	34.417	5.58305	0.162218
1_43.png_146	1_43.png	146	91	356	20	0.57645	35.0624	4.93765	0.140825
1_43.png_147	1_43.png	147	99	532	20	-1.32342	21	19	0.904766
1_43.png_148	1_43.png	148	101	299	20	-2.28307	23.475	16.525	0.703939
1_43.png_149	1_43.png	149	106	334	20	0.703131	26.7372	13.2628	0.496042
1_43.png_150	1_43.png	150	109	566	20	-1.29066	24.1346	15.8654	0.657372
1_43.png_151	1_43.png	151	113	432	20	-1.76263	25.7179	14.2821	0.555337
1_43.png_152	1_43.png	152	128	393	20	-1.8241	25.7917	14.2083	0.550889
1_43.png_153	1_43.png	153	130	316	20	-1.9794	31.756	8.24399	0.259604
1_43.png_154	1_43.png	154	134	283	20	-1.5522	29.9776	10.0224	0.33433
1_43.png_155	1_43.png	155	141	448	20	-1.64374	28.488	11.512	0.404101
1_43.png_156	1_43.png	156	155	532	20	-1.86123	24.1171	15.8829	0.658576
1_43.png_157	1_43.png	157	157	414	20	-0.659624	23.19	16.81	0.724881
1_43.png_158	1_43.png	158	157	580	20	-0.230311	21.9368	18.0632	0.823424
1_43.png_159	1_43.png	159	166	294	20	-1.86876	25.6785	14.3215	0.557722
1_43.png_160	1_43.png	160	180	550	20	-1.79221	28.3421	11.6579	0.411329
1_43.png_161	1_43.png	161	192	315	20	-2.11412	37.1411	2.85893	0.076975
1_43.png_162	1_43.png	162	203	326	20	-2.22622	34.6755	5.32455	0.153554
1_43.png_163	1_43.png	163	207	373	20	-1.01588	35.4382	4.56183	0.128726
1_43.png_164	1_43.png	164	207	566	20	-1.83841	30.7903	9.20974	0.299112
1_43.png_165	1_43.png	165	211	540	20	-1.70103	30.3931	9.60694	0.31609
1_43.png_166	1_43.png	166	233	353	20	-1.11792	24.8869	15.1131	0.607269
1_43.png_167	1_43.png	167	242	560	20	-0.695775	24.8841	15.1159	0.607455
1_43.png_168	1_43.png	168	257	330	20	-0.858666	35.0173	4.98273	0.142294
1_43.png_169	1_43.png	169	264	373	20	-1.89948	33.2807	6.71933	0.201899
1_43.png_170	1_43.png	170	264	539	20	-0.790714	35.3961	4.60394	0.130069
1_43.png_171	1_43.png	171	273	449	20	-0.0108405	24.8686	15.1314	0.608451
1_43.png_172	1_43.png	172	305	196	20	-0.5965	35.4674	4.53259	0.127796
1_43.png_173	1_43.png	173	311	60	20	0.542217	23.1066	16.8934	0.731109
1_43.png_174	1_43.png	174	324	172	20	-0.416912	27.9273	12.0727	0.432288
1_43.png_175	1_43.png	175	330	87	20	-2.09049	23.2171	16.7829	0.722869
1_43.png_176	1_43.png	176	331	308	20	0.541891	34.3409	5.65914	0.164793
1_43.png_177	1_43.png	177	340	147	20	-0.429719	36.3354	3.66459	0.100855
1_43.png_178	1_43.png	178	347	46	20	0.740557	22.9157	17.0843	0.745525
1_43.png_179	1_43.png	179	351	334	20	0.719002	23.699	16.301	0.687831
1_43.png_180	1_43.png	180	363	76	20	-2.09772	22.0275	17.9725	0.815911
1_43.png_181	1_43.png	181	369	433	20	-1.12781	33.6383	6.36171	0.189121
1_43.png_182	1_43.png	182	370	116	20	-1.21961	27.7831	12.2169	0.439723
1_43.png_183	1_43.png	183	374	356	20	-2.29552	36.2765	3.72351	0.102642
1_43.png_184	1_43.png	184	394	415	20	-1.29098	24.4056	15.5944	0.638969
1_43.png_185	1_43.png	185	399	67	20	-0.493922	25.3444	14.6556	0.57826
1_43.png_186	1_43.png	186	400	104	20	-1.57699	25.4085	14.5915	0.574279
1_43.png_187	1_43.png	187	418	394	20	-0.933875	35.1789	4.82112	0.137046
1_43.png_188	1_43.png	188	427	85	20	-1.1604	33.7329	6.2671	0.185786
1_43.png_189	1_43.png	189	450	225	20	-0.990427	23.4012	16.5988	0.709317
1_43.png_190	1_43.png	190	475	203	20	-0.898452	35.1289	4.87111	0.138664
1_43.png_191	1_43.png	191	481	299	20	-1.401	34.6412	5.35882	0.154695
1_43.png_192	1_43.png	192	484	259	20	-2.26018	34.6626	5.33737	0.153981
1_43.png_193	1_43.png	193	505	347	20	0.607773	36.1372	3.86278	0.106892
1_43.png_194	1_43.png	194	506	94	20	0.489515	24.5789	15.4211	0.627413
1_43.png_195	1_43.png	195	507	401	20	-0.24082	32.8967	7.10326	0.215926
1_43.png_196	1_43.png	196	510	287	20	-1.62187	28.1354	11.8646	0.421695
1_43.png_197	1_43.png	197	514	515	20	0.34157	25.6962	14.3038	0.556649
1_43.png_198	1_43.png	198	515	558	20	-0.791506	34.3363	5.66368	0.164947
1_43.png_199	1_43.png	199	519	487	20	0.0811332	27.1912	12.8088	0.471063
1_43.png_200	1_43.png	200	525	371	20	0.379257	25.5398	14.4602	0.566185
1_43.png_201	1_43.png	201	527	119	20	0.598175	35.2168	4.78324	0.135823
1_43.png_202	1_43.png	202	529	457	20	-0.00647264	24.915	15.085	0.605461
1_43.png_203	1_43.png	203	537	28	20	-1.88687	33.5792	6.42078	0.191213
1_43.png_204	1_43.png	204	537	66	20	-0.975816	31.4133	8.58673	0.273347
1_43.png_205	1_43.png	205	537	301	20	-1.81412	35.0128	4.98715	0.142438
1_43.png_206	1_43.png	206	537	536	20	-0.230571	20.6282	19.3718	0.939096
1_43.png_207	1_43.png	207	541	247	20	-0.467482	37.2825	2.71746	0.0728884
1_43.png_208	1_43.png	208	543	396	20	0.524541	35.7494	4.25059	0.1189
1_43.png_209	1_43.png	209	547	507	20	0.266901	27.5877	12.4123	0.449923
1_43.png_210	1_43.png	210	559	558	20	0.730528	34.1624	5.8376	0.170878
1_43.png_211	1_43.png	211	562	221	20	-0.166055	28.2146	11.7854	0.417706
1_43.png_212	1_43.png	212	564	454	20	-1.54755	22.5162	17.4838	0.776499
1_43.png_213	1_43.png	213	567	44	20	-1.52068	24.9985	15.0015	0.600099
1_43.png_214	1_43.png	214	568	167	20	-0.730757	35.5945	4.40552	0.12377
1_43.png_215	1_43.png	215	570	340	20	-1.27467	35.2135	4.78651	0.135928
1_43.png_216	1_43.png	216	580	250	20	-0.0884611	29.4854	10.5146	0.356603
1_43.png_217	1_43.png	217	584	197	20	-0.321421	30.252	9.74796	0.322225
1_43.png_218	1_43.png	218	589	145	20	-0.587512	24.1905	15.8095	0.653544
1_43.png_219	1_43.png	219	592	21	20	-0.935728	34.1187	5.88132	0.172378
1_43.png_220	1_43.png	220	592	74	20	-2.24591	35.8085	4.19149	0.117053
1_43.png_221	1_43.png	221	592	110	20	0.72423	21.5598	18.4402	0.855306
1_43.png_222	1_43.png	222	600	441	20	-2.01463	30.3826	9.61744	0.316545
1_43.png_223	1_43.png	223	602	321	20	-1.71909	24.0702	15.9298	0.661809
1_43.png_224	1_43.png	224	607	491	20	0.256927	25.8593	14.1407	0.546835
1_43.png_225	1_43.png	225	610	230	20	-0.435328	21.1611	18.8389	0.890265
1_43.png_226	1_43.png	226	627	151	20	-2.0082	22.0253	17.9747	0.816092
1_43.png_227	1_43.png	227	627	346	20	-2.29841	34.4543	5.54569	0.160958
1_43.png_228	1_43.png	228	627	456	20	-2.10539	24.4348	15.5652	0.637006
1_43.png_229	1_43.png	229	629	115	20	-0.124771	25.0496	14.9504	0.596831
1_43.png_230	1_43.png	230	629	520	20	-0.844724	20.9707	19.0293	0.907422
1_43.png_231	1_43.png	231	639	488	20	-1.82392	21.1376	18.8624	0.892361
1_43.png_232	1_43.png	232	642	224	20	-0.481703	21.6269	18.3731	0.849551
1_43.png_233	1_43.png	233	646	89	20	-0.449865	34.6439	5.35614	0.154606
1_43.png_234	1_43.png	234	651	189	20	-2.13271	24.4165	15.5835	0.638237
1_43.png_235	1_43.png	235	657	455	20	-2.30879	23.9381	16.0619	0.670974
1_43.png_236	1_43.png	236	662	517	20	-0.212491	20.9753	19.0247	0.907009
1_43.png_237	1_43.png	237	671	484	20	-1.88623	23.2665	16.7335	0.719209
1_43.png_238	1_43.png	238	676	210	20	-2.2224	35.8016	4.19841	0.117269
1_43.png_239	1_43.png	239	690	452	20	-0.467194	33.4103	6.58972	0.197236
1_43.png_240	1_43.png	240	695	154	20	-0.890033	25.6865	14.3135	0.557238
1_43.png_241	1_43.png	241	711	407	20	0.565971	24.5373	15.4627	0.63017
1_43.png_242	1_43.png	242	718	374	20	-0.682841	22.874	17.126	0.748712
1_43.png_243	1_43.png	243	720	121	20	0.536009	23.1859	16.8141	0.725188
1_43.png_244	1_43.png	244	720	340	20	-0.807632	24.8135	15.1865	0.612023
1_43.png_245	1_43.png	245	731	273	20	0.211128	30.782	9.218	0.299461
1_43.png_246	1_43.png	246	733	430	20	0.632311	35.7093	4.29067	0.120155
1_43.png_247	1_43.png	247	744	238	20	-1.13638	24.4671	15.5329	0.634846
1_43.png_248	1_43.png	248	744	311	20	-2.14086	24.0608	15.9392	0.662457
1_43.png_249	1_43.png	249	749	191	20	-0.0584792	26.6659	13.3341	0.500045
1_43.png_250	1_43.png	250	749	362	20	-0.836147	22.163	17.837	0.804812
1_43.png_251	1_43.png	251	750	394	20	-0.153265	21.5935	18.4065	0.852406
1_43.png_252	1_43.png	252	753	135	20	-0.51343	24.2762	15.7238	0.647705
1_43.png_253	1_43.png	253	760	272	20	-0.0854181	29.9691	10.0309	0.334707
1_43.png_254	1_43.png	254	771	333	20	-2.07873	25.6652	14.3348	0.55853
1_43.png_255	1_43.png	255	773	165	20	-0.153557	31.2159	8.78408	0.281397
1_43.png_256	1_43.png	256	777	384	20	-2.15641	33.2459	6.75405	0.203154
