"ChildId"	"ParentId"	"File"	"Row"	"Child"	"Parent"	"ParentCoverage"	"ChildCoverage"	"OverlapCoverage"
nuclei.png_1	cytoplasm.png_0	cytoplasm.png	1	1	0	0	0	0
nuclei.png_2	cytoplasm.png_2	cytoplasm.png	2	2	2	0.242327	1	0.242327
nuclei.png_3	cytoplasm.png_3	cytoplasm.png	3	3	3	0.0287536	1	0.0287536
nuclei.png_4	cytoplasm.png_0	cytoplasm.png	4	4	0	0	0	0
nuclei.png_5	cytoplasm.png_3	cytoplasm.png	5	5	3	0.0390024	1	0.0390024
nuclei.png_6	cytoplasm.png_4	cytoplasm.png	6	6	4	0.107005	1	0.107005
nuclei.png_7	cytoplasm.png_0	cytoplasm.png	7	7	0	0	0	0
nuclei.png_8	cytoplasm.png_3	cytoplasm.png	8	8	3	0.0485111	1	0.0485111
nuclei.png_9	cytoplasm.png_4	cytoplasm.png	9	9	4	0.101141	1	0.101141
nuclei2.png_1	cytoplasm2.png_1	cytoplasm2.png	1	1	1	0.101141	1	0.101141
nuclei2.png_2	cytoplasm2.png_2	cytoplasm2.png	2	2	2	0.0485111	1	0.0485111
nuclei2.png_3	cytoplasm2.png_1	cytoplasm2.png	3	3	1	0.107005	1	0.107005
nuclei2.png_4	cytoplasm2.png_0	cytoplasm2.png	4	4	0	0	0	0
nuclei2.png_5	cytoplasm2.png_2	cytoplasm2.png	5	5	2	0.0390024	1	0.0390024
nuclei2.png_6	cytoplasm2.png_0	cytoplasm2.png	6	6	0	0	0	0
nuclei2.png_7	cytoplasm2.png_2	cytoplasm2.png	7	7	2	0.0287536	1	0.0287536
nuclei2.png_8	cytoplasm2.png_3	cytoplasm2.png	8	8	3	0.242327	1	0.242327
nuclei2.png_9	cytoplasm2.png_0	cytoplasm2.png	9	9	0	0	0	0
