"File"	"Desc"
"file1.png"	"title 1"
"file2.png"	"the second title which is very "long" and there's a <a href="http://www.google.com/#q=anduril">link</a> and this should probably be split in to several lines or otherwise the text will not show correctly. to prove this let's repeat: the second title which is very long and this should probably be split in to several lines or otherwise the text will not show correctly. the second title which is very long and this should probably be split in to several lines or otherwise the text will not show correctly. the second title which is very long and this should probably be split in to several lines or otherwise the text will not show correctly. the second title which is very long and this should probably be split in to several lines or otherwise the text will not show correctly. "
