"Original"	"File"	"Ch"	"Series"	"Group"
cells_multi.tif	cells_multi.tif_S1_C1_test.png	1	1	test
cells_multi.tif	cells_multi.tif_S1_C2_test.png	2	1	test
cells_multi.tif	cells_multi.tif_S1_C3_test.png	3	1	test
cells_multi.tif	cells_multi.tif_S2_C1_test.png	1	2	test
cells_multi.tif	cells_multi.tif_S2_C2_test.png	2	2	test
cells_multi.tif	cells_multi.tif_S2_C3_test.png	3	2	test
